0,62,69,74,80,
1,63,69,74,81,
2,63,69,74,81,
3,63,69,75,81,
4,63,69,75,81,
5,63,70,75,81,
6,63,70,75,82,
7,63,70,75,82,
8,64,70,75,82,
9,64,70,76,82,
10,64,70,76,82,
11,64,71,76,83,
12,64,71,76,83,
13,64,71,76,83,
14,65,71,77,83,
15,65,71,77,84,
16,65,72,77,84,
17,65,72,77,84,
18,65,72,77,84,
19,66,72,78,84,
20,66,72,78,85,
21,66,73,78,85,
22,66,73,78,85,
23,66,73,79,85,
24,66,73,79,86,
25,67,73,79,86,
26,67,74,79,86,
27,67,74,79,86,
28,67,74,80,86,
29,67,74,80,87,
30,67,74,80,87,
31,68,75,80,87,
32,68,75,81,87,
33,68,75,81,88,
34,68,75,81,88,
35,68,75,81,88,
36,69,75,81,88,
37,69,76,81,88,
38,69,76,82,89,
39,69,76,82,89,
40,69,76,82,89,
41,69,76,82,89,
42,70,77,83,90,
43,70,77,83,90,
44,70,77,83,90,
45,70,77,83,90,
46,70,77,83,90,
47,70,78,84,91,
48,71,78,84,91,
49,71,78,84,91,
50,71,78,84,91,
51,71,78,84,91,
52,71,78,84,92,
53,71,78,84,92,
54,71,79,85,92,
55,71,79,85,92,
56,72,79,85,92,
57,72,79,85,92,
58,72,79,85,92,
59,72,79,85,92,
60,72,79,85,93,
61,72,79,85,93,
62,72,79,85,93,
63,72,79,85,93,
64,72,79,85,93,
65,72,79,85,93,
66,72,79,85,93,
67,72,79,85,93,
68,72,79,85,93,
69,72,79,85,93,
70,72,79,85,92,
71,72,79,85,92,
72,72,79,85,92,
73,72,79,85,92,
74,72,79,85,92,
75,72,79,85,92,
76,71,79,85,92,
77,71,79,85,92,
78,71,79,85,92,
79,71,79,85,92,
80,71,78,84,92,
81,71,78,84,92,
82,71,78,84,91,
83,71,78,84,91,
84,71,78,84,91,
85,71,78,84,91,
86,71,78,84,91,
87,71,78,84,91,
88,70,78,83,91,
89,70,77,83,91,
90,70,77,83,90,
91,70,77,83,90,
92,70,77,83,90,
93,70,77,83,90,
94,70,77,83,90,
95,70,77,83,90,
96,69,77,82,89,
97,69,76,82,89,
98,69,76,82,89,
99,69,76,82,89,
100,69,76,82,89,
101,69,76,82,89,
102,69,76,82,89,
103,69,76,81,88,
104,68,75,81,88,
105,68,75,81,88,
106,68,75,81,88,
107,68,75,81,88,
108,68,75,81,88,
109,68,75,80,87,
110,68,75,80,87,
111,68,74,80,87,
112,67,74,80,87,
113,67,74,80,87,
114,67,74,80,87,
115,67,74,80,86,
116,67,74,79,86,
117,67,74,79,86,
118,67,73,79,86,
119,67,73,79,86,
120,66,73,79,86,
121,66,73,79,85,
122,66,73,79,85,
123,66,73,78,85,
124,66,73,78,85,
125,66,73,78,85,
126,66,72,78,85,
127,66,72,78,84,
128,65,72,78,84,
129,65,72,78,84,
130,65,72,77,84,
131,65,71,77,84,
132,65,71,77,83,
133,64,71,76,83,
134,64,71,76,82,
135,64,70,76,82,
136,63,70,75,82,
137,63,70,75,81,
138,63,69,75,81,
139,63,69,74,81,
140,62,69,74,80,
141,62,68,73,80,
142,61,68,73,79,
143,61,67,72,79,
144,61,67,72,78,
145,60,66,71,77,
146,60,66,71,77,
147,59,65,70,76,
148,59,65,70,76,
149,58,64,69,75,
150,58,64,69,75,
151,58,64,69,75,
152,58,64,69,75,
153,58,64,69,75,
154,58,64,69,75,
155,58,64,69,74,
156,58,64,68,74,
157,58,63,68,74,
158,57,63,68,74,
159,57,63,68,74,
160,58,63,68,74,
161,58,63,68,74,
162,58,63,68,74,
163,58,63,68,74,
164,58,63,68,74,
165,58,63,68,74,
166,58,63,68,74,
167,58,63,68,74,
168,58,63,68,74,
169,58,64,68,74,
170,58,64,68,74,
171,58,64,68,74,
172,58,64,69,74,
173,58,64,69,74,
174,58,64,69,74,
175,58,64,69,74,
176,58,64,69,74,
177,58,64,69,75,
178,58,64,69,75,
179,58,64,69,75,
180,58,64,69,75,
181,58,64,69,75,
182,58,64,69,75,
183,58,64,69,75,
184,58,64,69,75,
185,58,64,69,75,
186,58,64,69,75,
187,58,64,69,75,
188,58,64,69,75,
189,58,64,69,75,
190,58,64,69,75,
191,58,64,69,75,
192,58,64,69,75,
193,58,64,69,75,
194,58,64,69,75,
195,58,64,69,74,
196,58,64,69,74,
197,58,64,68,74,
198,58,64,68,74,
199,58,63,68,74,
200,57,63,68,74,
201,57,63,68,74,
202,57,63,68,74,
203,57,63,68,73,
204,57,63,68,73,
205,57,63,67,73,
206,57,62,67,73,
207,56,62,67,73,
208,56,62,67,73,
209,56,62,66,72,
210,56,61,66,72,
211,56,61,66,72,
212,55,61,66,71,
213,55,61,65,71,
214,55,61,65,71,
215,55,60,65,70,
216,54,60,64,70,
217,54,59,64,69,
218,54,59,64,69,
219,53,59,63,69,
220,53,58,63,68,
221,53,58,62,68,
222,52,57,62,67,
223,52,57,62,67,
224,52,57,61,67,
225,51,57,61,66,
226,51,56,61,66,
227,51,56,61,66,
228,51,56,61,66,
229,51,56,60,66,
230,51,56,60,65,
231,51,56,60,65,
232,50,56,60,65,
233,50,55,60,65,
234,50,55,60,65,
235,50,55,60,65,
236,50,55,60,65,
237,50,55,60,65,
238,50,55,60,65,
239,50,55,60,65,
240,50,55,60,65,
241,50,55,60,65,
242,50,55,60,65,
243,50,55,59,65,
244,50,55,59,65,
245,50,55,59,64,
246,50,55,59,64,
247,50,55,59,64,
248,50,55,59,64,
249,50,55,59,64,
250,50,55,59,64,
251,50,55,59,64,
252,50,55,59,64,
253,50,55,59,64,
254,50,55,59,64,
255,50,55,59,64,
256,50,55,59,64,
257,50,55,59,64,
258,50,55,59,64,
259,50,55,59,64,
260,50,55,59,64,
261,50,55,59,65,
262,50,55,60,65,
263,50,55,60,65,
264,50,56,60,65,
265,50,56,60,65,
266,51,56,60,65,
267,51,56,60,65,
268,51,56,60,65,
269,51,56,60,65,
270,51,56,60,66,
271,51,56,61,66,
272,51,56,61,66,
273,51,56,61,66,
274,51,57,61,66,
275,52,57,61,66,
276,52,57,61,67,
277,52,57,61,67,
278,52,57,62,67,
279,52,57,62,67,
280,52,58,62,67,
281,52,58,62,68,
282,53,58,63,68,
283,53,58,63,68,
284,53,58,63,68,
285,53,59,63,69,
286,53,59,63,69,
287,54,59,64,69,
288,54,59,64,69,
289,54,60,64,70,
290,54,60,64,70,
291,54,60,64,70,
292,54,60,65,70,
293,55,60,65,70,
294,55,60,65,70,
295,55,60,65,71,
296,55,60,65,71,
297,55,61,65,71,
298,55,61,65,71,
299,55,61,65,71,
300,55,61,65,71,
301,55,61,66,71,
302,55,61,66,71,
303,55,61,66,71,
304,55,61,66,71,
305,55,61,66,71,
306,55,61,66,71,
307,56,61,66,72,
308,56,61,66,72,
309,56,61,66,72,
310,56,61,66,72,
311,56,61,66,72,
312,56,61,66,72,
313,56,62,66,72,
314,56,62,66,72,
315,56,62,66,72,
316,56,62,66,72,
317,56,62,66,72,
318,56,62,67,72,
319,56,62,67,72,
320,56,62,67,72,
321,56,62,67,72,
322,56,62,67,72,
323,56,62,67,72,
324,56,62,67,73,
325,56,62,67,73,
326,56,62,67,73,
327,56,62,67,73,
328,56,62,67,73,
329,57,62,67,73,
330,57,63,67,73,
331,57,63,68,74,
332,57,63,68,74,
333,57,63,68,74,
334,58,64,68,74,
335,58,64,69,75,
336,58,64,69,75,
337,58,64,69,75,
338,59,65,69,75,
339,59,65,70,76,
340,59,65,70,76,
341,59,65,70,76,
342,59,65,71,77,
343,60,66,71,77,
344,60,66,71,77,
345,60,66,71,77,
346,60,66,72,78,
347,61,67,72,78,
348,61,67,72,78,
349,61,67,72,78,
350,61,67,72,78,
351,61,67,72,79,
352,61,67,73,79,
353,61,68,73,79,
354,62,68,73,79,
355,62,68,73,79,
356,62,68,73,80,
357,62,68,73,80,
358,62,68,74,80,
359,62,69,74,80,
360,62,69,74,80,
