0,53,58,62,68,
1,53,58,62,68,
2,53,58,62,68,
3,53,58,62,68,
4,52,58,62,68,
5,52,58,62,68,
6,52,58,62,68,
7,52,58,62,68,
8,52,58,62,68,
9,52,58,62,68,
10,52,58,62,68,
11,52,58,62,67,
12,52,58,62,67,
13,52,58,62,67,
14,52,58,62,67,
15,52,58,62,67,
16,52,58,62,67,
17,52,58,62,67,
18,52,58,62,67,
19,52,57,62,67,
20,52,57,62,67,
21,52,57,62,67,
22,52,57,62,67,
23,52,57,62,67,
24,52,57,62,67,
25,52,57,62,67,
26,52,57,62,67,
27,52,57,62,67,
28,52,57,62,67,
29,52,57,61,67,
30,52,57,61,67,
31,52,57,61,67,
32,52,57,61,67,
33,52,57,61,67,
34,52,57,61,66,
35,52,57,61,66,
36,51,57,61,66,
37,51,57,61,66,
38,51,57,61,66,
39,51,57,61,66,
40,51,57,61,66,
41,51,56,61,66,
42,51,56,61,66,
43,51,56,61,66,
44,51,56,61,66,
45,51,56,61,66,
46,51,56,61,66,
47,51,56,60,66,
48,51,56,60,66,
49,51,56,60,66,
50,51,56,60,65,
51,51,56,60,65,
52,51,56,60,65,
53,51,56,60,65,
54,51,56,60,65,
55,51,56,60,65,
56,51,56,60,65,
57,51,56,60,65,
58,50,56,60,65,
59,50,56,60,65,
60,50,56,60,65,
61,50,55,60,65,
62,50,55,60,65,
63,50,55,60,65,
64,50,55,60,65,
65,50,55,60,65,
66,50,55,59,65,
67,50,55,59,65,
68,50,55,59,64,
69,50,55,59,64,
70,50,55,59,64,
71,50,55,59,64,
72,50,55,59,64,
73,50,55,59,64,
74,50,55,59,64,
75,50,55,59,64,
76,50,55,59,64,
77,50,55,59,64,
78,50,55,59,64,
79,50,55,59,64,
80,50,55,59,64,
81,50,55,59,64,
82,50,55,59,64,
83,50,55,59,64,
84,50,55,59,64,
85,50,55,59,64,
86,50,55,59,64,
87,50,55,59,64,
88,50,55,59,64,
89,50,55,59,64,
90,50,55,59,64,
91,50,55,59,64,
92,50,55,59,64,
93,50,55,59,64,
94,50,55,59,64,
95,50,55,59,64,
96,50,55,59,64,
97,50,55,59,64,
98,50,55,59,64,
99,50,55,59,64,
100,50,55,59,64,
101,50,55,59,64,
102,50,55,59,64,
103,50,55,59,64,
104,50,55,59,64,
105,50,55,59,65,
106,50,55,59,65,
107,50,55,59,65,
108,50,55,59,65,
109,50,55,59,65,
110,50,55,60,65,
111,50,55,60,65,
112,50,55,60,65,
113,50,55,60,65,
114,50,55,60,65,
115,50,55,60,65,
116,50,55,60,65,
117,50,56,60,65,
118,50,56,60,65,
119,50,56,60,65,
120,50,56,60,65,
121,50,56,60,65,
122,50,56,60,65,
123,51,56,60,65,
124,51,56,60,65,
125,51,56,60,65,
126,51,56,60,65,
127,51,56,60,65,
128,51,56,60,65,
129,51,56,60,65,
130,51,56,60,65,
131,51,56,60,65,
132,51,56,60,65,
133,51,56,60,65,
134,51,56,60,65,
135,51,56,60,65,
136,51,56,60,65,
137,51,56,60,66,
138,51,56,60,66,
139,51,56,60,66,
140,51,56,60,66,
141,51,56,61,66,
142,51,56,61,66,
143,51,56,61,66,
144,51,56,61,66,
145,51,56,61,66,
146,51,56,61,66,
147,51,56,61,66,
148,51,57,61,66,
149,52,57,61,67,
150,52,57,62,67,
151,52,57,62,67,
152,52,58,62,68,
153,53,58,62,68,
154,53,58,63,68,
155,53,59,63,68,
156,53,59,63,69,
157,54,59,64,69,
158,54,59,64,69,
159,54,60,64,70,
160,54,60,65,70,
161,55,60,65,70,
162,55,61,65,71,
163,55,61,66,71,
164,56,61,66,72,
165,56,61,66,72,
166,56,61,66,72,
167,56,61,66,72,
168,56,61,66,72,
169,56,61,66,72,
170,55,61,66,71,
171,55,61,66,71,
172,55,61,66,71,
173,55,61,65,71,
174,55,61,65,71,
175,55,60,65,71,
176,55,60,65,71,
177,55,60,65,70,
178,54,60,65,70,
179,54,60,64,70,
180,54,60,64,70,
181,54,59,64,70,
182,54,59,64,69,
183,54,59,64,69,
184,53,59,63,69,
185,53,59,63,69,
186,53,59,63,68,
187,53,58,63,68,
188,53,58,63,68,
189,53,58,62,68,
190,52,58,62,67,
191,52,58,62,67,
192,52,57,62,67,
193,52,57,62,67,
194,52,57,61,67,
195,52,57,61,66,
196,51,57,61,66,
197,51,56,61,66,
198,51,56,60,66,
199,51,56,60,65,
200,51,56,60,65,
201,50,56,60,65,
202,50,55,60,65,
203,50,55,59,64,
204,50,55,59,64,
205,50,55,59,64,
206,49,55,59,64,
207,49,54,58,63,
208,49,54,58,63,
209,49,54,58,63,
210,49,54,58,63,
211,48,53,57,62,
212,48,53,57,62,
213,48,53,57,62,
214,48,52,57,61,
215,47,52,56,61,
216,47,52,56,61,
217,47,52,56,60,
218,47,51,55,60,
219,46,51,55,60,
220,46,51,55,59,
221,46,50,54,59,
222,46,50,54,59,
223,45,50,54,58,
224,45,50,53,58,
225,45,49,53,58,
226,44,49,53,57,
227,44,49,52,57,
228,44,48,52,57,
229,44,48,52,56,
230,43,48,52,56,
231,43,48,51,56,
232,43,47,51,55,
233,43,47,51,55,
234,43,47,51,55,
235,42,47,50,55,
236,42,46,50,54,
237,42,46,50,54,
238,42,46,50,54,
239,42,46,49,54,
240,42,46,49,54,
241,41,46,49,53,
242,41,45,49,53,
243,41,45,49,53,
244,41,45,49,53,
245,41,45,49,53,
246,41,45,49,53,
247,41,45,48,53,
248,41,45,48,52,
249,41,45,48,52,
250,41,45,48,52,
251,41,45,48,52,
252,41,45,48,52,
253,41,45,48,52,
254,41,45,48,52,
255,41,45,48,52,
256,41,45,48,52,
257,41,45,48,53,
258,41,45,48,53,
259,41,45,49,53,
260,41,45,49,53,
261,41,45,49,53,
262,41,45,49,53,
263,41,45,49,53,
264,41,45,49,53,
265,41,46,49,53,
266,41,46,49,53,
267,42,46,49,54,
268,42,46,50,54,
269,42,46,50,54,
270,42,46,50,54,
271,42,46,50,54,
272,42,47,50,55,
273,42,47,50,55,
274,43,47,51,55,
275,43,47,51,55,
276,43,48,51,56,
277,43,48,51,56,
278,44,48,52,56,
279,44,48,52,56,
280,44,49,52,57,
281,44,49,53,57,
282,45,49,53,57,
283,45,49,53,58,
284,45,50,53,58,
285,45,50,54,58,
286,46,50,54,59,
287,46,51,54,59,
288,46,51,55,59,
289,46,51,55,60,
290,47,51,55,60,
291,47,52,56,60,
292,47,52,56,61,
293,47,52,56,61,
294,48,53,57,62,
295,48,53,57,62,
296,48,53,57,62,
297,49,54,58,63,
298,49,54,58,63,
299,49,54,58,63,
300,49,54,59,64,
301,50,55,59,64,
302,50,55,59,64,
303,50,55,60,65,
304,50,56,60,65,
305,51,56,60,65,
306,51,56,60,66,
307,51,56,61,66,
308,51,57,61,66,
309,52,57,61,67,
310,52,57,62,67,
311,52,57,62,67,
312,52,58,62,67,
313,53,58,62,68,
314,53,58,63,68,
315,53,58,63,68,
316,53,59,63,69,
317,53,59,63,69,
318,54,59,63,69,
319,54,59,64,69,
320,54,59,64,69,
321,54,59,64,70,
322,54,60,64,70,
323,54,60,64,70,
324,54,60,65,70,
325,55,60,65,70,
326,55,60,65,71,
327,55,60,65,71,
328,55,61,65,71,
329,55,61,65,71,
330,55,61,65,71,
331,55,61,65,71,
332,55,61,65,71,
333,55,61,65,71,
334,55,60,65,71,
335,55,60,65,71,
336,55,60,65,70,
337,54,60,65,70,
338,54,60,64,70,
339,54,60,64,70,
340,54,59,64,70,
341,54,59,64,69,
342,54,59,64,69,
343,53,59,63,69,
344,53,59,63,69,
345,53,59,63,69,
346,53,59,63,68,
347,53,58,63,68,
348,53,58,63,68,
349,53,58,63,68,
350,53,58,63,68,
351,53,58,63,68,
352,53,58,63,68,
353,53,58,63,68,
354,53,58,63,68,
355,53,58,62,68,
356,53,58,62,68,
357,53,58,62,68,
358,53,58,62,68,
359,53,58,62,68,
360,53,58,62,68,
