0,60,66,71,77,
1,60,66,71,77,
2,60,66,71,77,
3,60,66,71,77,
4,60,66,71,77,
5,60,66,71,77,
6,60,66,71,77,
7,60,66,71,77,
8,60,66,71,77,
9,60,66,71,77,
10,60,66,71,77,
11,60,66,71,77,
12,60,66,71,78,
13,60,66,71,78,
14,60,66,71,78,
15,60,66,71,78,
16,60,66,72,78,
17,60,66,72,78,
18,60,66,72,78,
19,60,66,72,78,
20,60,67,72,78,
21,60,67,72,78,
22,60,67,72,78,
23,60,67,72,78,
24,60,67,72,78,
25,60,67,72,78,
26,60,67,72,78,
27,61,67,72,78,
28,61,67,72,78,
29,61,67,72,78,
30,61,67,72,78,
31,61,67,72,78,
32,61,67,72,78,
33,61,67,72,78,
34,61,67,72,78,
35,61,67,72,78,
36,61,67,72,78,
37,61,67,72,78,
38,61,67,72,78,
39,61,67,72,78,
40,61,67,72,78,
41,61,67,72,78,
42,61,67,72,78,
43,61,67,72,78,
44,61,67,72,78,
45,61,67,72,78,
46,61,67,72,78,
47,61,67,72,78,
48,61,67,72,78,
49,61,67,72,78,
50,61,67,72,78,
51,61,67,72,78,
52,61,67,72,78,
53,61,67,72,78,
54,61,67,72,78,
55,61,67,72,78,
56,61,67,72,78,
57,61,67,72,78,
58,61,67,72,78,
59,61,67,72,78,
60,61,67,72,78,
61,61,67,72,78,
62,61,67,72,78,
63,61,67,72,78,
64,61,67,72,78,
65,61,67,72,78,
66,61,67,72,78,
67,61,67,72,78,
68,61,67,72,78,
69,61,67,72,78,
70,61,67,72,78,
71,61,67,72,78,
72,61,67,72,78,
73,61,67,72,78,
74,61,67,72,78,
75,61,67,72,78,
76,61,67,72,78,
77,60,67,72,78,
78,60,67,72,78,
79,60,67,72,78,
80,60,67,72,78,
81,60,67,72,78,
82,60,67,72,78,
83,60,67,72,78,
84,60,67,72,78,
85,60,67,72,78,
86,60,67,72,78,
87,60,67,72,78,
88,60,67,72,78,
89,60,67,72,78,
90,60,67,72,78,
91,60,67,72,78,
92,60,67,72,78,
93,60,67,72,78,
94,60,66,72,78,
95,60,67,72,78,
96,60,67,72,78,
97,60,66,72,78,
98,60,66,72,78,
99,60,66,72,78,
100,60,66,72,78,
101,60,66,72,78,
102,60,66,72,78,
103,60,66,72,78,
104,60,66,71,78,
105,60,66,71,78,
106,60,66,71,77,
107,60,66,71,77,
108,60,66,71,77,
109,60,66,71,77,
110,60,66,71,77,
111,60,66,71,77,
112,60,66,71,77,
113,60,66,71,77,
114,60,66,71,77,
115,60,66,71,77,
116,60,66,71,77,
117,60,66,71,77,
118,60,66,71,77,
119,60,66,71,77,
120,60,66,71,77,
121,60,66,71,77,
122,59,65,71,77,
123,59,65,70,77,
124,59,65,70,76,
125,59,65,70,76,
126,59,65,70,76,
127,59,65,70,76,
128,59,65,70,76,
129,59,65,70,76,
130,59,65,70,76,
131,59,65,70,76,
132,59,65,70,76,
133,59,65,70,76,
134,59,65,70,76,
135,59,65,70,76,
136,59,65,70,76,
137,59,65,70,76,
138,59,65,70,76,
139,59,65,70,76,
140,59,65,70,76,
141,59,66,71,77,
142,60,66,71,77,
143,60,66,71,77,
144,60,66,71,77,
145,60,66,71,77,
146,60,66,71,77,
147,60,66,71,77,
148,60,66,72,78,
149,61,67,72,78,
150,61,67,72,78,
151,61,67,72,79,
152,61,67,73,79,
153,61,68,73,79,
154,61,68,73,79,
155,62,68,73,79,
156,62,68,73,79,
157,62,68,73,79,
158,61,68,73,79,
159,61,68,73,79,
160,61,67,73,79,
161,61,67,72,79,
162,61,67,72,78,
163,61,67,72,78,
164,60,67,72,78,
165,60,66,71,77,
166,60,66,71,77,
167,60,66,71,77,
168,59,65,70,76,
169,59,65,70,76,
170,59,65,70,76,
171,59,65,70,76,
172,58,64,69,75,
173,58,64,69,75,
174,58,64,69,75,
175,58,64,68,74,
176,57,63,68,74,
177,57,63,68,74,
178,57,63,67,73,
179,57,62,67,73,
180,56,62,67,73,
181,56,62,67,72,
182,56,62,66,72,
183,56,61,66,72,
184,55,61,66,71,
185,55,61,65,71,
186,55,60,65,71,
187,55,60,65,70,
188,54,60,64,70,
189,54,60,64,70,
190,54,59,64,69,
191,53,59,63,69,
192,53,59,63,69,
193,53,58,63,68,
194,53,58,62,68,
195,52,58,62,67,
196,52,57,62,67,
197,52,57,61,67,
198,51,57,61,66,
199,51,56,61,66,
200,51,56,60,65,
201,51,56,60,65,
202,50,55,60,65,
203,50,55,59,64,
204,50,55,59,64,
205,49,54,58,63,
206,49,54,58,63,
207,49,53,58,63,
208,48,53,57,62,
209,48,53,57,62,
210,47,52,56,61,
211,47,52,56,61,
212,47,52,56,60,
213,46,51,55,60,
214,46,51,55,59,
215,46,50,54,59,
216,46,50,54,59,
217,45,50,54,58,
218,45,50,53,58,
219,45,49,53,58,
220,44,49,53,57,
221,44,49,52,57,
222,44,48,52,57,
223,44,48,52,56,
224,43,48,52,56,
225,43,48,51,56,
226,43,47,51,56,
227,43,47,51,55,
228,43,47,51,55,
229,43,47,51,55,
230,42,47,50,55,
231,42,47,50,55,
232,43,47,50,55,
233,43,47,51,55,
234,43,47,51,55,
235,43,47,51,55,
236,43,47,51,55,
237,43,48,51,56,
238,43,48,51,56,
239,44,48,52,56,
240,44,48,52,56,
241,44,48,52,57,
242,44,49,52,57,
243,44,49,53,57,
244,45,49,53,57,
245,45,49,53,58,
246,45,49,53,58,
247,45,50,53,58,
248,45,50,54,58,
249,45,50,54,59,
250,46,50,54,59,
251,46,51,55,59,
252,46,51,55,60,
253,46,51,55,60,
254,47,51,55,60,
255,47,52,56,61,
256,47,52,56,61,
257,48,52,56,61,
258,48,53,57,62,
259,48,53,57,62,
260,48,53,57,62,
261,49,53,58,62,
262,49,54,58,63,
263,49,54,58,63,
264,49,54,58,63,
265,49,54,59,64,
266,50,55,59,64,
267,50,55,59,64,
268,50,55,59,64,
269,50,55,59,65,
270,50,55,60,65,
271,50,56,60,65,
272,51,56,60,65,
273,51,56,60,66,
274,51,56,61,66,
275,51,57,61,66,
276,52,57,61,66,
277,52,57,61,67,
278,52,57,62,67,
279,52,57,62,67,
280,52,58,62,67,
281,53,58,62,68,
282,53,58,63,68,
283,53,58,63,68,
284,53,58,63,68,
285,53,59,63,68,
286,53,59,63,69,
287,53,59,63,69,
288,54,59,64,69,
289,54,59,64,69,
290,54,59,64,69,
291,54,60,64,70,
292,54,60,64,70,
293,54,60,65,70,
294,55,60,65,70,
295,55,60,65,71,
296,55,61,65,71,
297,55,61,65,71,
298,55,61,66,71,
299,55,61,66,71,
300,56,61,66,72,
301,56,61,66,72,
302,56,62,66,72,
303,56,62,66,72,
304,56,62,67,72,
305,56,62,67,72,
306,56,62,67,73,
307,56,62,67,73,
308,57,62,67,73,
309,57,63,67,73,
310,57,63,68,73,
311,57,63,68,73,
312,57,63,68,74,
313,57,63,68,74,
314,57,63,68,74,
315,58,63,68,74,
316,58,64,68,74,
317,58,64,69,74,
318,58,64,69,75,
319,58,64,69,75,
320,58,64,69,75,
321,58,64,69,75,
322,58,64,69,75,
323,58,64,69,75,
324,58,64,69,75,
325,58,64,69,75,
326,59,65,70,75,
327,59,65,69,75,
328,59,65,70,75,
329,59,65,70,76,
330,59,65,70,76,
331,59,65,70,76,
332,59,65,70,76,
333,59,65,70,76,
334,59,65,70,76,
335,59,65,70,76,
336,59,65,70,76,
337,59,65,70,76,
338,59,65,70,76,
339,59,65,70,76,
340,59,65,70,76,
341,59,65,70,76,
342,59,65,70,76,
343,59,65,70,76,
344,59,65,70,76,
345,59,65,70,76,
346,59,65,70,76,
347,59,65,70,76,
348,59,65,70,76,
349,59,65,70,76,
350,59,65,70,76,
351,59,65,70,76,
352,59,66,71,77,
353,59,66,71,77,
354,59,66,71,77,
355,60,66,71,77,
356,60,66,71,77,
357,60,66,71,77,
358,60,66,71,77,
359,60,66,71,77,
360,60,66,71,77,
